1 10 20
100 200 125
201 210 89
900 1000 174
746 848 153
210 242 128
348 838 171
119 112 34
681 780 171
513 531 124
137 22 122
560 908 179
953 756 179
411 937 179
915 735 179
716 195 171
491 170 144
695 126 145
65 138 122
185 201 120
894 941 174
892 246 179
751 617 171
861 47 171
394 837 171
694 495 145
833 249 171
458 947 179
811 473 171
996 581 179
602 498 137
841 362 171
329 145 144
248 269 123
138 381 144
926 564 179
348 357 126
535 883 179
775 812 153
260 498 144
99 40 119
330 128 144
374 108 144
167 817 171
393 244 144
916 730 179
921 978 174
996 412 179
601 624 132
913 79 179
833 147 171
66 337 144
450 1000 179
71 854 171
968 1000 143
659 493 145
348 752 171
582 175 144
527 615 137
115 39 119
343 180 144
212 935 179
903 43 179
272 642 144
508 672 145
998 585 179
598 31 144
435 876 179
348 261 144
519 607 137
786 729 153
72 724 171
528 734 171
912 370 179
105 927 179
947 489 179
413 530 142
271 247 123
60 896 179
114 950 179
679 592 145
457 765 171
17 56 113
88 500 144
531 113 144
193 964 179
610 590 132
954 572 179
521 946 179
711 180 171
543 419 142
801 110 171
470 515 142
182 628 144
224 512 144
139 892 179
359 526 142
296 511 144
979 414 179
722 417 171
182 843 171
43 877 179
301 903 179
735 141 171
351 663 145
49 451 144
280 719 171
957 837 179
729 480 171
918 795 179
548 455 142
72 249 128
71 732 171
865 420 171
289 553 144
537 788 171
261 91 128
656 993 179
19 702 145
414 12 144
423 800 171
232 666 145
59 7 113
655 955 179
157 617 144
89 188 125
614 91 144
559 50 144
517 792 171
242 242 97
39 582 144
490 390 142
452 873 179
633 830 171
358 628 142
516 920 179
443 751 171
682 84 145
861 977 179
699 371 145
456 932 179
897 136 179
192 823 171
984 9 179
71 418 144
287 216 128
574 524 137
126 955 179
484 425 129
372 3 144
336 37 144
541 684 145
403 413 134
281 305 118
999999 999999 259
95078 92809 315
524621 524569 302
549210 549073 240
782205 782263 287
