1 10 20
100 200 125
201 210 89
900 1000 174
1000 6005 238
6000 8653 262
1560 2000 180
2001 2100 157
6025 10000 262
1 8000 262
56 62 108
262 969 179
2566 6100 238
9000 10000 260
1000 10 179
50 50 25
200 200 27
9 952 179
7050 8000 252
10000 1003 262
5233 8050 262
62 363 144
44 55 113
10000 10000 30
899 900 117
268 862 171
7 9 20
1 1 1
20 22 16
9866 10000 242
10000 1 262
9999 10000 92
1553 1616 167
5 10 20
1789 6533 262
6544 8455 257
110 500 144
600 1005 179
900 901 55
5000 1000 238
25 1006 179
6969 4200 262
4200 6969 262
9000 1 262
6211 1381 262
7897 1231 262
456 10000 262
252 5256 238
2000 1500 180
300 4 128
1 1111 179
6688 8560 257
3696 6945 262
6556 9889 260
10000 10 262
15 1065 179
400 5 144
200 800 171
100 1090 179
4656 6521 262
10 10 7
200 200 27
9137 3764 262
10000 6565 260
10000 9999 92
1 9963 262
10 89 116
31 3111 217
900 10000 262
100 10000 262
1 102 119
100 1355 182
7 2986 217
1020 7943 262
1123 10000 262
181 191 107
10 8000 262
2000 1015 182
2000 2019 144
100 5030 238
96 10005 262
10 840 171
2565 10002 262
9566 6652 260
1000 10000 262
2 520 144
80 2800 209
6494 3797 262
84 10000 262
10000 9863 242
9 90 116
860 860 104
4694 7648 262
3105 6450 262
1005 10000 262
12 102 119
1515 9865 262
7577 9999 260
10022 2264 262
1000 4122 238
4562 6565 262
100 6896 262
2235 8410 262
7845 8858 252
1525 5565 238
